{

"header" : {
  "navbar" : {
    "new" : {
      "NEW" : "New",
      "NEWS" : "News",
      "BLOG" : "Blogs Post",
      "PAGE" : "Page",
      "USER" : "User"
    },
    "NOTIFICATIONS" : "Notifications"
  }
},
"aside" : {
  "nav" : {
    "HEADER" : "Navigation",
    "DASHBOARD" : "Dashboard",
    "users" : {
      "USERS": "Users",
      "USER_LIST": "Users List",
      "CREATE_USER": "Create User"
      },
    "pages" : {
      "PAGES": "Pages",
      "CREATE_PAGE": "Create Page",
      "MANAGE_PAGE": "Manage Page",
      "MANAGE_PAGE_CATEGORY": "Manage Page Category"
      },
    "news" : {
      "NEWS": "News",
      "CREATE_NEWS": "Create News",
      "MANAGE_NEWS": "Manage News",
      "NEWS_CATEGORY": "News Category",
      "NEWS_TAGS": "News Tags",
      "CREATE_NEWS_AUTHOR": "Create Author",
      "MANAGE_NEWS_AUTHOR": "Manage Author"
      },
    "contacts" : {
      "CONTACTS": "Contacts",
      "MANAGE_CONTACTS": "Manage Contacts"
      },
    "workshop" : {
      "WORKSHOP": "Workshop",
      "CREATE_WORKSHOP": "Create Workshop",
      "MANAGE_WORKSHOP": "Manage Workshop",
      "WORKSHOP_REG": "Workshop Registrants"
      },
    "newsletter" : {
      "NEWSLETTER": "Newsletter",
      "CREATE_NEWSLETTER": "Create Newsletter",
      "MANAGE_NEWSLETTER": "Manage Newsletter",
      "ADD_SUBSCRIBERS": "Add Subscribers",
      "SUBSCRIBERS_LIST": "Subscribers List"
      },
    "testi" : "Testimonials",
    "booking" : "Booking",
    "contactus" : "Contact Us",
    "story" : {
      "STORY": "Success Stories",
      "MANAGE_STORY": "Manage Stories",
      "NEWS_TAGS": "Tags",
      "CREATE_NEWS_AUTHOR": "Create Author",
      "MANAGE_NEWS_AUTHOR": "Manage Author"
      },
    "components" : {
      "COMPONENTS" : "Components",
      "slider" : {
        "SLIDER": "Slider",
        "CREATE_SLIDER" : "Create Slider",
        "MANAGE_SLIDER" : "Manage Slider"
      },
      "income" : {
        "INCOME" : "Center Income",
        "MANAGE_INCOME" : "Manage Income"
      }
    },
    "your_stuff" : {
      "OTHERS": "Other Stuff",
      "PROFILE" : "Profile",
      "LOGS" : "System Logs",
      "SETTINGS" : "Settings"
    }
  },
  "MEMORY" : "Memory",
  "DISK" : "Disk"
}

}
